<?xml version="1.0" encoding="UTF-8" standalone="no"?>
<svg
   xmlns:dc="http://purl.org/dc/elements/1.1/"
   xmlns:cc="http://creativecommons.org/ns#"
   xmlns:rdf="http://www.w3.org/1999/02/22-rdf-syntax-ns#"
   xmlns:svg="http://www.w3.org/2000/svg"
   xmlns="http://www.w3.org/2000/svg"
   xmlns:sodipodi="http://sodipodi.sourceforge.net/DTD/sodipodi-0.dtd"
   xmlns:inkscape="http://www.inkscape.org/namespaces/inkscape"
   width="18.881"
   height="18.881"
   viewBox="0 0 4.996 4.996"
   version="1.1"
   id="svg6"
   sodipodi:docname="false.svg"
   inkscape:version="0.92.4 5da689c313, 2019-01-14">
  <metadata
     id="metadata12">
    <rdf:RDF>
      <cc:Work
         rdf:about="">
        <dc:format>image/svg+xml</dc:format>
        <dc:type
           rdf:resource="http://purl.org/dc/dcmitype/StillImage" />
        <dc:title></dc:title>
      </cc:Work>
    </rdf:RDF>
  </metadata>
  <defs
     id="defs10" />
  <sodipodi:namedview
     pagecolor="#ffffff"
     bordercolor="#666666"
     borderopacity="1"
     objecttolerance="10"
     gridtolerance="10"
     guidetolerance="10"
     inkscape:pageopacity="0"
     inkscape:pageshadow="2"
     inkscape:window-width="3840"
     inkscape:window-height="2059"
     id="namedview8"
     showgrid="false"
     inkscape:zoom="70.706931"
     inkscape:cx="10.404457"
     inkscape:cy="9.594971"
     inkscape:window-x="0"
     inkscape:window-y="0"
     inkscape:window-maximized="1"
     inkscape:current-layer="svg6" />
  <circle
     style="opacity:1;fill:#ff7400;fill-opacity:1;stroke:#000000;stroke-width:0.13230231;stroke-linecap:round;stroke-linejoin:round;stroke-miterlimit:4;stroke-dasharray:none;stroke-dashoffset:0;stroke-opacity:1"
     id="path14"
     cx="2.4923537"
     cy="2.5036464"
     r="1.8187445" />
  <circle
     style="opacity:1;fill:#ffffff;fill-opacity:1;stroke:#000000;stroke-width:0.07938139;stroke-linecap:round;stroke-linejoin:round;stroke-miterlimit:4;stroke-dasharray:none;stroke-dashoffset:0;stroke-opacity:1"
     id="path823"
     cx="1.9628221"
     cy="2.0826409"
     r="0.33888862" />
  <path
     style="fill:none;stroke:#000000;stroke-width:0.13230231;stroke-linecap:round;stroke-linejoin:miter;stroke-miterlimit:4;stroke-dasharray:none;stroke-opacity:1"
     d="m 1.6608444,3.6060214 c 0,0 0.2607847,-0.5875113 0.8612833,-0.5875113 0.6004987,0 0.8457369,0.5875113 0.8457369,0.5875113"
     id="path836"
     inkscape:connector-curvature="0"
     sodipodi:nodetypes="czc" />
  <ellipse
     style="opacity:1;fill:#000000;fill-opacity:1;stroke:#000000;stroke-width:0.13230231;stroke-linecap:round;stroke-linejoin:round;stroke-miterlimit:4;stroke-dasharray:none;stroke-dashoffset:0;stroke-opacity:1"
     id="path838"
     cx="2.0376675"
     cy="1.9198519"
     rx="0.095427953"
     ry="0.089814544" />
  <circle
     r="0.33888862"
     cy="2.0826409"
     cx="2.9629023"
     id="circle840"
     style="opacity:1;fill:#ffffff;fill-opacity:1;stroke:#000000;stroke-width:0.07938139;stroke-linecap:round;stroke-linejoin:round;stroke-miterlimit:4;stroke-dasharray:none;stroke-dashoffset:0;stroke-opacity:1" />
  <ellipse
     ry="0.089814544"
     rx="0.095427953"
     cy="2.2229762"
     cx="2.8843145"
     id="ellipse842"
     style="opacity:1;fill:#000000;fill-opacity:1;stroke:#000000;stroke-width:0.13230231;stroke-linecap:round;stroke-linejoin:round;stroke-miterlimit:4;stroke-dasharray:none;stroke-dashoffset:0;stroke-opacity:1" />
</svg>
